{
"type": "FeatureCollection",
"crs": { "type": "name", "properties": { "name": "urn:ogc:def:crs:OGC:1.3:CRS84" } },
                                                                                
"features": [
{ "type": "Feature", "properties": { "id": 1 }, "geometry": { "type": "Polygon", "coordinates": [ [ [ -98.979405009974414, 19.565777392433681 ], [ -98.96440766701086, 19.565323756130471 ], [ -98.958456607390602, 19.564194229548697 ], [ -98.957029608819624, 19.559229571956493 ], [ -98.958935396485813, 19.553588735331722 ], [ -98.961079404363375, 19.546594017717805 ], [ -98.95822622124868, 19.534408193960701 ], [ -98.956799909519702, 19.527863955541864 ], [ -98.948707801246542, 19.528313144559174 ], [ -98.940139482399246, 19.529213117873311 ], [ -98.935141103008505, 19.530114000882961 ], [ -98.932049338610099, 19.524697220714394 ], [ -98.929908460493522, 19.522214232121367 ], [ -98.931101569023326, 19.514768172342212 ], [ -98.933483581114672, 19.509353410211315 ], [ -98.931106442675087, 19.503259906596668 ], [ -98.929919640049945, 19.49626422243168 ], [ -98.928969995073615, 19.49129949342079 ], [ -98.927069463112602, 19.48452915343567 ], [ -98.924930746780475, 19.478661302563122 ], [ -98.923981880765908, 19.472568272948855 ], [ -98.931121996106981, 19.466478488656058 ], [ -98.937309369977825, 19.461967665307434 ], [ -98.937074165541986, 19.454972322692701 ], [ -98.939931200300549, 19.448654986233599 ], [ -98.949923542893032, 19.44459624927411 ], [ -98.956109385614766, 19.440761732569662 ], [ -98.959679022373962, 19.434444244177641 ], [ -98.963010580367367, 19.427900978001805 ], [ -98.968482593909528, 19.420681065872959 ], [ -98.974429929239349, 19.412558430860621 ], [ -98.981565895698282, 19.403307442576576 ], [ -98.991554841920419, 19.391348455162568 ], [ -99.000115638704116, 19.387061198408034 ], [ -99.003920366033014, 19.388189433444655 ], [ -99.008200898060096, 19.39247674305215 ], [ -99.012243627009582, 19.393830447650082 ], [ -99.017237906347148, 19.397666181875746 ], [ -99.028654721168778, 19.408947492882113 ], [ -99.040786974238927, 19.421581839070658 ], [ -99.048400249883599, 19.429252221023425 ], [ -99.052446682670649, 19.438277266469381 ], [ -99.053636986813046, 19.4412104216192 ], [ -99.055540733588629, 19.443466389016429 ], [ -99.056494344698564, 19.449558749984003 ], [ -99.053879476879729, 19.455200889627459 ], [ -99.050074784915807, 19.460392013814207 ], [ -99.046507823325058, 19.465808648282426 ], [ -99.047222789861038, 19.470095877955107 ], [ -99.049127058212164, 19.473254517953066 ], [ -99.050317629194453, 19.476413336305626 ], [ -99.051746103168114, 19.479346424750538 ], [ -99.051985111099469, 19.482731152186627 ], [ -99.052224273833929, 19.486567183828782 ], [ -99.054367076813492, 19.490628304780778 ], [ -99.059842288082436, 19.497396159436185 ], [ -99.061747720644206, 19.502134223306413 ], [ -99.061988948671072, 19.510708931847883 ], [ -99.060799838612041, 19.512740205765628 ], [ -99.056040846524894, 19.514321308264172 ], [ -99.054613653669023, 19.516352614543681 ], [ -99.051520958508036, 19.519738303964974 ], [ -99.048904322350083, 19.523800767391929 ], [ -99.046287362748231, 19.527186235716847 ], [ -99.042242041689775, 19.529669397080134 ], [ -99.038910828969961, 19.533054922342171 ], [ -99.037959487890063, 19.53598859750722 ], [ -99.035818086150627, 19.539148158223067 ], [ -99.032962174139399, 19.540502611567309 ], [ -99.031534550807166, 19.542985033859541 ], [ -99.028916719474225, 19.545241987175089 ], [ -99.025823082762997, 19.549529833595468 ], [ -99.022253301315928, 19.554494638342952 ], [ -99.019397248807039, 19.557879736416908 ], [ -99.014160577099588, 19.561039339438395 ], [ -99.008209452925811, 19.562393614851835 ], [ -98.998449402320304, 19.563747701372158 ], [ -98.992260015412654, 19.564650146313248 ], [ -98.986546668370181, 19.565552415020356 ], [ -98.979405009974414, 19.565777392433681 ] ] ] } },
{ "type": "Feature", "properties": { "id": 2 }, "geometry": { "type": "Polygon", "coordinates": [ [ [ -99.094009989372864, 19.327463729344235 ], [ -99.092107700280877, 19.32633641646256 ], [ -99.082355557412995, 19.313929949585521 ], [ -99.071178771520593, 19.301297843420848 ], [ -99.068326082800311, 19.299719330965782 ], [ -99.06452331991396, 19.299495056925714 ], [ -99.061433987846399, 19.300398752599012 ], [ -99.059294730523519, 19.29972248732728 ], [ -99.058106633563128, 19.300399841879788 ], [ -99.056918292694078, 19.300400216212932 ], [ -99.054541610874693, 19.300400941675477 ], [ -99.054304910656739, 19.303334559628851 ], [ -99.05335524532272, 19.306494043534251 ], [ -99.053593804420032, 19.309201861801839 ], [ -99.053832519197897, 19.312360993372227 ], [ -99.052881632222181, 19.311909956924204 ], [ -99.044086446579357, 19.30875309135817 ], [ -99.034816246193543, 19.305595891493645 ], [ -99.0243584122139, 19.304920614200491 ], [ -99.017466226078881, 19.308531922884463 ], [ -99.002967410278572, 19.290028808408461 ], [ -98.994174644313674, 19.278520181358598 ], [ -98.996551115403932, 19.273555761062305 ], [ -99.000115554105548, 19.266786042943586 ], [ -99.007006461347686, 19.265206299550261 ], [ -99.019125373755088, 19.268815968356371 ], [ -99.027680245963737, 19.271522773297434 ], [ -99.034808757975753, 19.270167605098862 ], [ -99.044787582262501, 19.264975290411236 ], [ -99.049777950354425, 19.266327950419416 ], [ -99.057619299801658, 19.266099989224514 ], [ -99.063795290667841, 19.260682136899103 ], [ -99.065219706851167, 19.257522415337018 ], [ -99.069496049859509, 19.25616688931105 ], [ -99.074723549253008, 19.256616145748463 ], [ -99.077573959851733, 19.254809690796499 ], [ -99.080664003585355, 19.257290598185882 ], [ -99.083752536383088, 19.256612234667656 ], [ -99.086129409865194, 19.258190740252552 ], [ -99.088507902807919, 19.262702772448336 ], [ -99.088747337883831, 19.266087530658652 ], [ -99.091840274993061, 19.273081405671739 ], [ -99.096118246926039, 19.274207496348868 ], [ -99.100631153431735, 19.270820197180331 ], [ -99.104433586047662, 19.271495038647739 ], [ -99.105862096689762, 19.275781718328094 ], [ -99.103486623100821, 19.277137026221173 ], [ -99.099685565464284, 19.278944402122136 ], [ -99.099924707719211, 19.28142650772228 ], [ -99.101828063633505, 19.285035980978734 ], [ -99.100166052829067, 19.287519134285645 ], [ -99.09992990957717, 19.290001497491897 ], [ -99.097793311433222, 19.29383883239155 ], [ -99.09589440949236, 19.297901673817236 ], [ -99.09494596492803, 19.301738344885941 ], [ -99.094711542040557, 19.307379898219761 ], [ -99.094952346113502, 19.312795544106187 ], [ -99.094243814907273, 19.320693905162901 ], [ -99.094009989372864, 19.327463729344235 ] ] ] } },
{ "type": "Feature", "properties": { "id": 3 }, "geometry": { "type": "Polygon", "coordinates": [ [ [ -98.940209062962808, 19.339212307565617 ], [ -98.936406435783766, 19.336728798215013 ], [ -98.932842286502805, 19.332665700470812 ], [ -98.928089966551141, 19.328150753473096 ], [ -98.921197835581665, 19.325214367106607 ], [ -98.914068487973239, 19.321826294756089 ], [ -98.903849016875213, 19.319113311728081 ], [ -98.898382869244244, 19.317756407522388 ], [ -98.892202852057594, 19.317752860610444 ], [ -98.883882962942437, 19.318650382146405 ], [ -98.878415997584995, 19.318646820515553 ], [ -98.873426679699818, 19.315709889191243 ], [ -98.875098390493335, 19.305330822172699 ], [ -98.87652799514575, 19.300592995004585 ], [ -98.877719855535418, 19.295854994743731 ], [ -98.877960192929407, 19.292244637727894 ], [ -98.875112086125029, 19.287278248560241 ], [ -98.872501093482583, 19.283214609161291 ], [ -98.872504411144632, 19.278927116216167 ], [ -98.876072695193386, 19.273965099589248 ], [ -98.881301521799131, 19.272614622502111 ], [ -98.885344174699213, 19.268329701041786 ], [ -98.889148850279156, 19.26427020130032 ], [ -98.89295436343815, 19.258631012106211 ], [ -98.900562568503801, 19.250737260096884 ], [ -98.908644091883744, 19.244874347899657 ], [ -98.919099621734262, 19.241494385577607 ], [ -98.92694126414446, 19.238338457967057 ], [ -98.931218619853311, 19.236083524580319 ], [ -98.939057860548957, 19.238117233322559 ], [ -98.94024640562607, 19.236312352554524 ], [ -98.936922240010404, 19.231346736375993 ], [ -98.932648947473069, 19.224124117757242 ], [ -98.931225287869239, 19.220061719416751 ], [ -98.935976773079375, 19.218935143904098 ], [ -98.94096598480543, 19.217131542942965 ], [ -98.945004605200438, 19.216230161170181 ], [ -98.950941940485052, 19.220745038076004 ], [ -98.95592942049305, 19.225033835510175 ], [ -98.959966349350651, 19.231578883173654 ], [ -98.965192060822815, 19.235416157833001 ], [ -98.970180394302801, 19.23947890265142 ], [ -98.973268319311373, 19.243315583348689 ], [ -98.976119285880017, 19.243767295513884 ], [ -98.982533504543909, 19.249635152043048 ], [ -98.985621945912413, 19.253020302977454 ], [ -98.988948088591371, 19.256856732481641 ], [ -98.992512037935839, 19.259790475468186 ], [ -98.995125678244847, 19.262047149610485 ], [ -98.997977006301909, 19.26430378864184 ], [ -98.997501702049945, 19.269042610006764 ], [ -98.992035881123002, 19.27919707508239 ], [ -99.006294910515024, 19.299280691743967 ], [ -99.004393697583808, 19.303793898981507 ], [ -99.001066280161993, 19.304922236293695 ], [ -98.997501157784939, 19.304922222304306 ], [ -98.993698403803165, 19.303793843091071 ], [ -98.990133292379952, 19.304019342729923 ], [ -98.988231984931758, 19.302890942418458 ], [ -98.985379982454418, 19.302213763646762 ], [ -98.983003343328008, 19.301536585158388 ], [ -98.980626617532465, 19.301762005986578 ], [ -98.979913358905918, 19.303792846749996 ], [ -98.98133927003812, 19.304921285584239 ], [ -98.979675295500584, 19.306952025036829 ], [ -98.976585131607536, 19.309433886186476 ], [ -98.973733135916646, 19.308305211097476 ], [ -98.970880859885369, 19.308981750462685 ], [ -98.968741562468978, 19.309884026034268 ], [ -98.966364927476405, 19.308980974075901 ], [ -98.965414299773272, 19.308529481666849 ], [ -98.963750241498531, 19.309883102874398 ], [ -98.962561420915137, 19.311688121378776 ], [ -98.964224967369873, 19.312816741489726 ], [ -98.96351165850588, 19.313944886507361 ], [ -98.959470854574079, 19.314395348170567 ], [ -98.955905043831507, 19.316199778790224 ], [ -98.955191232774567, 19.318907490439592 ], [ -98.954477648054379, 19.320712570351699 ], [ -98.953050560394985, 19.323871406741041 ], [ -98.951148071457723, 19.326804447150458 ], [ -98.948532806790581, 19.328383325878399 ], [ -98.946630404794732, 19.330639347142711 ], [ -98.94544094611625, 19.33334687607298 ], [ -98.944726887579748, 19.336054541121804 ], [ -98.944013343835053, 19.337182606513071 ], [ -98.940446869066164, 19.338986728864295 ], [ -98.940209062962808, 19.339212307565617 ] ] ] } }
]
}
